<?xml version="1.0" encoding="utf-8"?>
<!-- Generator: Adobe Illustrator 23.0.1, SVG Export Plug-In . SVG Version: 6.00 Build 0)  -->
<svg version="1.1" id="Calque_1" xmlns="http://www.w3.org/2000/svg" xmlns:xlink="http://www.w3.org/1999/xlink" x="0px" y="0px"
	 viewBox="0 0 62.86 78.52" style="enable-background:new 0 0 62.86 78.52;" xml:space="preserve">
<style type="text/css">
	.st0{fill:#3F616F;}
</style>
<path id="_x36__1_" class="st0" d="M24.42,59.1C20.2,56.49,2.83,44.74,2.83,28.63c0-12.08,11.37-22.36,23.45-24.64
	c-0.76,0.15-1.65,0.39-2.27,0.76C24.01,4.74-8.78,21.37,24.42,59.1z M39.92,4.96c3.78,2.16,29.97,18.95-0.72,53.97
	c4.36-3.04,20.51-15.3,20.82-30.3C60.25,17.81,50.7,8.44,39.92,4.96z M27.7,3.77c-0.1,0.01-0.34,0.04-0.67,0.08
	C27.26,3.82,27.48,3.8,27.7,3.77z M38.76,59.23c0.13-0.09,0.28-0.19,0.44-0.3c-0.21,0.24-0.41,0.47-0.62,0.72L38,60.91l-2.61,7.87
	h0.23v0.55h-0.36v4.93c0,0.4-0.26,0.73-0.59,0.73h-5.99c-0.33,0-0.59-0.33-0.59-0.73v-4.93h-0.37v-0.55H28l-2.58-7.85h-0.08
	l-0.65-1.52c-0.09-0.1-0.18-0.2-0.27-0.31c0.07,0.05,0.14,0.09,0.21,0.13l2.05-0.01c-1.75-3.13-21.19-39.28,1.08-55.45
	c0,0-0.02,0-0.05,0.01c0.89-0.12,1.79-0.21,2.68-0.24c-0.23,0.07-0.46,0.16-0.7,0.27c0,0-11.86,17.59-0.02,55.41l4.18-0.02
	c0.5-2.15,9-39.09-0.65-55.57c0,0-0.03-0.01-0.06-0.03c1.18,0.09,2.37,0.26,3.55,0.5c-0.21-0.01-0.2,0.02-0.2,0.02
	c22.23,16.15,2.21,51.83,0.34,55.05l1.97-0.01L38.76,59.23z M28.37,68.78h3.25v-7.85h-5.83L28.37,68.78z M37.63,60.94h-5.66v7.85
	h3.06L37.63,60.94z"/>
</svg>
